…
### Exercise 1

Install and load the `janitor` package. Use its `clean_names()` function on the Pokémon data, and save the results to work with for the rest of the assignment. What happened to the data? Why do you think `clean_names()` is useful?


```r
cleaned <- clean_names(Pokemon)
cleaned
```

```
## # A tibble: 800 x 13
##    number name      type_1 type_2 total    hp attack defense sp_atk sp_def speed
##     <dbl> <chr>     <chr>  <chr>  <dbl> <dbl>  <dbl>   <dbl>  <dbl>  <dbl> <dbl>
##  1      1 Bulbasaur Grass  Poison   318    45     49      49     65     65    45
##  2      2 Ivysaur   Grass  Poison   405    60     62      63     80     80    60
##  3      3 Venusaur  Grass  Poison   525    80     82      83    100    100    80
##  4      3 Venusaur~ Grass  Poison   625    80    100     123    122    120    80
##  5      4 Charmand~ Fire   <NA>     309    39     52      43     60     50    65
##  6      5 Charmele~ Fire   <NA>     405    58     64      58     80     65    80
##  7      6 Charizard Fire   Flying   534    78     84      78    109     85   100
##  8      6 Charizar~ Fire   Dragon   634    78    130     111    130     85   100
##  9      6 Charizar~ Fire   Flying   634    78    104      78    159    115   100
## 10      7 Squirtle  Water  <NA>     314    44     48      65     50     64    43
## # ... with 790 more rows, and 2 more variables: generation <dbl>,
## #   legendary <lgl>
```
…
    There are 18 class of outcomes. There are Pokémon types with very few Pokémon. Such as the  Flying class which only has 4,  Fairy with 17. There are a few other classes that are barely having above 20 pokemons. 

For this assignment, we'll handle the rarer classes by simply filtering them out. Filter the entire data set to contain only Pokémon whose `type_1` is Bug, Fire, Grass, Normal, Water, or Psychic.


```r
filtered <- cleaned %>% filter(
  type_1 == "Bug" | type_1 == "Fire" | type_1 == "Grass" 
  | type_1 == "Normal" | type_1 == "Water" | type_1 == "Psychic"
  )
filtered
```

```
## # A tibble: 458 x 13
##    number name      type_1 type_2 total    hp attack defense sp_atk sp_def speed
##     <dbl> <chr>     <chr>  <chr>  <dbl> <dbl>  <dbl>   <dbl>  <dbl>  <dbl> <dbl>
##  1      1 Bulbasaur Grass  Poison   318    45     49      49     65     65    45
##  2      2 Ivysaur   Grass  Poison   405    60     62      63     80     80    60
##  3      3 Venusaur  Grass  Poison   525    80     82      83    100    100    80
##  4      3 Venusaur~ Grass  Poison   625    80    100     123    122    120    80
##  5      4 Charmand~ Fire   <NA>     309    39     52      43     60     50    65
##  6      5 Charmele~ Fire   <NA>     405    58     64      58     80     65    80
##  7      6 Charizard Fire   Flying   534    78     84      78    109     85   100
##  8      6 Charizar~ Fire   Dragon   634    78    130     111    130     85   100
##  9      6 Charizar~ Fire   Flying   634    78    104      78    159    115   100
## 10      7 Squirtle  Water  <NA>     314    44     48      65     50     64    43
## # ... with 448 more rows, and 2 more variables: generation <dbl>,
## #   legendary <lgl>
```

After filtering, convert `type_1` and `legendary` to factors.


```r
data <- filtered %>% 
  mutate(type_1 = factor(type_1),
         legendary = factor(legendary),
         generation = factor(generation)
         )
data
```

```
## # A tibble: 458 x 13
##    number name      type_1 type_2 total    hp attack defense sp_atk sp_def speed
##     <dbl> <chr>     <fct>  <chr>  <dbl> <dbl>  <dbl>   <dbl>  <dbl>  <dbl> <dbl>
##  1      1 Bulbasaur Grass  Poison   318    45     49      49     65     65    45
##  2      2 Ivysaur   Grass  Poison   405    60     62      63     80     80    60
##  3      3 Venusaur  Grass  Poison   525    80     82      83    100    100    80
##  4      3 Venusaur~ Grass  Poison   625    80    100     123    122    120    80
##  5      4 Charmand~ Fire   <NA>     309    39     52      43     60     50    65
##  6      5 Charmele~ Fire   <NA>     405    58     64      58     80     65    80
##  7      6 Charizard Fire   Flying   534    78     84      78    109     85   100
##  8      6 Charizar~ Fire   Dragon   634    78    130     111    130     85   100
##  9      6 Charizar~ Fire   Flying   634    78    104      78    159    115   100
## 10      7 Squirtle  Water  <NA>     314    44     48      65     50     64    43
## # ... with 448 more rows, and 2 more variables: generation <fct>,
## #   legendary <fct>
```
…
elastic_workflow <- workflow() %>% 
  add_recipe(pokemon_recipe) %>% 
  add_model(elastic_spec)

penalty_grid <- grid_regular(penalty(range = c(-5, 5)), 
                             mixture(range = c(0, 1)),
                             levels = 10)
penalty_grid
```

```
## # A tibble: 100 x 2
##          penalty mixture
##            <dbl>   <dbl>
##  1      0.00001        0
##  2      0.000129       0
##  3      0.00167        0
##  4      0.0215         0
##  5      0.278          0
##  6      3.59           0
##  7     46.4            0
##  8    599.             0
##  9   7743.             0
## 10 100000              0
## # ... with 90 more rows
```
…
### Exercise 7

Use `select_best()` to choose the model that has the optimal `roc_auc`. Then use `finalize_workflow()`, `fit()`, and `augment()` to fit the model to the training set and evaluate its performance on the testing set.


```r
collect_metrics(tune_res)
```

```
## # A tibble: 200 x 8
##     penalty mixture .metric  .estimator  mean     n std_err .config             
##       <dbl>   <dbl> <chr>    <chr>      <dbl> <int>   <dbl> <chr>               
##  1 0.00001        0 accuracy multiclass 0.370     5  0.0209 Preprocessor1_Model~
##  2 0.00001        0 roc_auc  hand_till  0.694     5  0.0141 Preprocessor1_Model~
##  3 0.000129       0 accuracy multiclass 0.370     5  0.0209 Preprocessor1_Model~
##  4 0.000129       0 roc_auc  hand_till  0.694     5  0.0141 Preprocessor1_Model~
##  5 0.00167        0 accuracy multiclass 0.370     5  0.0209 Preprocessor1_Model~
##  6 0.00167        0 roc_auc  hand_till  0.694     5  0.0141 Preprocessor1_Model~
##  7 0.0215         0 accuracy multiclass 0.363     5  0.0266 Preprocessor1_Model~
##  8 0.0215         0 roc_auc  hand_till  0.690     5  0.0147 Preprocessor1_Model~
##  9 0.278          0 accuracy multiclass 0.336     5  0.0173 Preprocessor1_Model~
## 10 0.278          0 roc_auc  hand_till  0.652     5  0.0126 Preprocessor1_Model~
## # ... with 190 more rows
```
…
```r
elastic_final <- finalize_workflow(elastic_workflow, best_penalty)

elastic_final_fit <- fit(elastic_final, data = pokemon_train)

augment(elastic_final_fit, new_data = pokemon_test) 
```

```
## # A tibble: 140 x 20
##    number name      type_1 type_2 total    hp attack defense sp_atk sp_def speed
##     <dbl> <chr>     <fct>  <chr>  <dbl> <dbl>  <dbl>   <dbl>  <dbl>  <dbl> <dbl>
##  1      1 Bulbasaur Grass  Poison   318    45     49      49     65     65    45
##  2      3 Venusaur  Grass  Poison   525    80     82      83    100    100    80
##  3      5 Charmele~ Fire   <NA>     405    58     64      58     80     65    80
##  4     10 Caterpie  Bug    <NA>     195    45     30      35     20     20    45
##  5     12 Butterfr~ Bug    Flying   395    60     45      50     90     80    70
##  6     15 Beedrill~ Bug    Poison   495    65    150      40     15     80   145
##  7     18 PidgeotM~ Normal Flying   579    83     80      80    135     80   121
##  8     39 Jigglypu~ Normal Fairy    270   115     45      20     45     25    20
##  9     44 Gloom     Grass  Poison   395    60     65      70     85     75    40
## 10     45 Vileplume Grass  Poison   490    75     80      85    110     90    50
## # ... with 130 more rows, and 9 more variables: generation <fct>,
## #   legendary <fct>, .pred_class <fct>, .pred_Bug <dbl>, .pred_Fire <dbl>,
## #   .pred_Grass <dbl>, .pred_Normal <dbl>, .pred_Psychic <dbl>,
## #   .pred_Water <dbl>
```
…
